%YAML 1.1
%TAG !u! tag:unity3d.com,2011:
--- !u!114 &11400000
MonoBehaviour:
  m_ObjectHideFlags: 0
  m_CorrespondingSourceObject: {fileID: 0}
  m_PrefabInstance: {fileID: 0}
  m_PrefabAsset: {fileID: 0}
  m_GameObject: {fileID: 0}
  m_Enabled: 1
  m_EditorHideFlags: 0
  m_Script: {fileID: 11500000, guid: 43e72740d09b4b638ec39171549bbd89, type: 3}
  m_Name: 023
  m_EditorClassIdentifier: 
  mapSprite: {fileID: 21300000, guid: d6f057db0e9066f419c3fdbe5f7b7a63, type: 3}
  portalTop: 1
  portalRight: 0
  portalBottom: 1
  portalLeft: 1
