[api-updater (non-obsolete-error-filter)] 4/8/2021 2:13:10 PM : Starting C:/Program Files/Unity/Hub/Editor/2020.3.1f1/Editor/Data/Tools/ScriptUpdater/APIUpdater.NonObsoleteApiUpdaterDetector.exe
[api-updater (non-obsolete-error-filter)] 
----------------------------------
jit/startup time      : 369.7847ms
moved types parse time: 68ms
candidates parse time : 1ms
C# parse time         : 413ms
candidates check time : 62ms
console write time    : 1ms

[api-updater (non-obsolete-error-filter)] 4/8/2021 4:10:26 PM : Starting C:/Program Files/Unity/Hub/Editor/2020.3.1f1/Editor/Data/Tools/ScriptUpdater/APIUpdater.NonObsoleteApiUpdaterDetector.exe
[api-updater (non-obsolete-error-filter)] 
----------------------------------
jit/startup time      : 75.7967ms
moved types parse time: 48ms
candidates parse time : 1ms
C# parse time         : 186ms
candidates check time : 50ms
console write time    : 0ms

[api-updater (non-obsolete-error-filter)] 4/8/2021 4:10:28 PM : Starting C:/Program Files/Unity/Hub/Editor/2020.3.1f1/Editor/Data/Tools/ScriptUpdater/APIUpdater.NonObsoleteApiUpdaterDetector.exe
[api-updater (non-obsolete-error-filter)] 
----------------------------------
jit/startup time      : 67.8176ms
moved types parse time: 67ms
candidates parse time : 1ms
C# parse time         : 220ms
candidates check time : 43ms
console write time    : 0ms

[api-updater (non-obsolete-error-filter)] 4/8/2021 4:10:58 PM : Starting C:/Program Files/Unity/Hub/Editor/2020.3.1f1/Editor/Data/Tools/ScriptUpdater/APIUpdater.NonObsoleteApiUpdaterDetector.exe
[api-updater (non-obsolete-error-filter)] 
----------------------------------
jit/startup time      : 50.8655ms
moved types parse time: 42ms
candidates parse time : 0ms
C# parse time         : 140ms
candidates check time : 37ms
console write time    : 0ms

[api-updater (non-obsolete-error-filter)] 4/8/2021 4:11:08 PM : Starting C:/Program Files/Unity/Hub/Editor/2020.3.1f1/Editor/Data/Tools/ScriptUpdater/APIUpdater.NonObsoleteApiUpdaterDetector.exe
[api-updater (non-obsolete-error-filter)] 
----------------------------------
jit/startup time      : 65.8231ms
moved types parse time: 59ms
candidates parse time : 1ms
C# parse time         : 181ms
candidates check time : 42ms
console write time    : 0ms

[api-updater (non-obsolete-error-filter)] 4/8/2021 4:42:41 PM : Starting C:/Program Files/Unity/Hub/Editor/2020.3.1f1/Editor/Data/Tools/ScriptUpdater/APIUpdater.NonObsoleteApiUpdaterDetector.exe
[api-updater (non-obsolete-error-filter)] 
----------------------------------
jit/startup time      : 51.8898ms
moved types parse time: 65ms
candidates parse time : 1ms
C# parse time         : 183ms
candidates check time : 52ms
console write time    : 0ms

[api-updater (non-obsolete-error-filter)] 4/8/2021 4:43:11 PM : Starting C:/Program Files/Unity/Hub/Editor/2020.3.1f1/Editor/Data/Tools/ScriptUpdater/APIUpdater.NonObsoleteApiUpdaterDetector.exe
[api-updater (non-obsolete-error-filter)] 
----------------------------------
jit/startup time      : 58.84ms
moved types parse time: 59ms
candidates parse time : 1ms
C# parse time         : 208ms
candidates check time : 51ms
console write time    : 0ms

[api-updater (non-obsolete-error-filter)] 4/8/2021 5:19:50 PM : Starting C:/Program Files/Unity/Hub/Editor/2020.3.1f1/Editor/Data/Tools/ScriptUpdater/APIUpdater.NonObsoleteApiUpdaterDetector.exe
[api-updater (non-obsolete-error-filter)] 
----------------------------------
jit/startup time      : 83.7754ms
moved types parse time: 69ms
candidates parse time : 1ms
C# parse time         : 241ms
candidates check time : 53ms
console write time    : 0ms

[api-updater (non-obsolete-error-filter)] 4/8/2021 5:19:57 PM : Starting C:/Program Files/Unity/Hub/Editor/2020.3.1f1/Editor/Data/Tools/ScriptUpdater/APIUpdater.NonObsoleteApiUpdaterDetector.exe
[api-updater (non-obsolete-error-filter)] 
----------------------------------
jit/startup time      : 81.7815ms
moved types parse time: 66ms
candidates parse time : 1ms
C# parse time         : 243ms
candidates check time : 55ms
console write time    : 0ms

[api-updater (non-obsolete-error-filter)] 4/8/2021 5:20:35 PM : Starting C:/Program Files/Unity/Hub/Editor/2020.3.1f1/Editor/Data/Tools/ScriptUpdater/APIUpdater.NonObsoleteApiUpdaterDetector.exe
[api-updater (non-obsolete-error-filter)] 
----------------------------------
jit/startup time      : 63.8303ms
moved types parse time: 59ms
candidates parse time : 1ms
C# parse time         : 192ms
candidates check time : 38ms
console write time    : 0ms

[api-updater (non-obsolete-error-filter)] 4/8/2021 5:21:18 PM : Starting C:/Program Files/Unity/Hub/Editor/2020.3.1f1/Editor/Data/Tools/ScriptUpdater/APIUpdater.NonObsoleteApiUpdaterDetector.exe
[api-updater (non-obsolete-error-filter)] 
----------------------------------
jit/startup time      : 66.3617ms
moved types parse time: 57ms
candidates parse time : 1ms
C# parse time         : 193ms
candidates check time : 51ms
console write time    : 0ms

[api-updater (non-obsolete-error-filter)] 4/8/2021 5:21:26 PM : Starting C:/Program Files/Unity/Hub/Editor/2020.3.1f1/Editor/Data/Tools/ScriptUpdater/APIUpdater.NonObsoleteApiUpdaterDetector.exe
[api-updater (non-obsolete-error-filter)] 
----------------------------------
jit/startup time      : 69.8125ms
moved types parse time: 71ms
candidates parse time : 1ms
C# parse time         : 266ms
candidates check time : 50ms
console write time    : 0ms

[api-updater (non-obsolete-error-filter)] 4/8/2021 5:22:23 PM : Starting C:/Program Files/Unity/Hub/Editor/2020.3.1f1/Editor/Data/Tools/ScriptUpdater/APIUpdater.NonObsoleteApiUpdaterDetector.exe
[api-updater (non-obsolete-error-filter)] 
----------------------------------
jit/startup time      : 56.8483ms
moved types parse time: 44ms
candidates parse time : 1ms
C# parse time         : 164ms
candidates check time : 42ms
console write time    : 0ms

[api-updater (non-obsolete-error-filter)] 4/8/2021 5:22:35 PM : Starting C:/Program Files/Unity/Hub/Editor/2020.3.1f1/Editor/Data/Tools/ScriptUpdater/APIUpdater.NonObsoleteApiUpdaterDetector.exe
[api-updater (non-obsolete-error-filter)] 
----------------------------------
jit/startup time      : 50.8737ms
moved types parse time: 47ms
candidates parse time : 1ms
C# parse time         : 200ms
candidates check time : 48ms
console write time    : 0ms

[api-updater (non-obsolete-error-filter)] 4/8/2021 5:22:45 PM : Starting C:/Program Files/Unity/Hub/Editor/2020.3.1f1/Editor/Data/Tools/ScriptUpdater/APIUpdater.NonObsoleteApiUpdaterDetector.exe
[api-updater (non-obsolete-error-filter)] 
----------------------------------
jit/startup time      : 49.8943ms
moved types parse time: 42ms
candidates parse time : 1ms
C# parse time         : 205ms
candidates check time : 44ms
console write time    : 0ms

[api-updater (non-obsolete-error-filter)] 4/8/2021 5:28:21 PM : Starting C:/Program Files/Unity/Hub/Editor/2020.3.1f1/Editor/Data/Tools/ScriptUpdater/APIUpdater.NonObsoleteApiUpdaterDetector.exe
[api-updater (non-obsolete-error-filter)] 
----------------------------------
jit/startup time      : 100.9637ms
moved types parse time: 76ms
candidates parse time : 1ms
C# parse time         : 250ms
candidates check time : 46ms
console write time    : 0ms

[api-updater (non-obsolete-error-filter)] 4/8/2021 6:47:46 PM : Starting C:/Program Files/Unity/Hub/Editor/2020.3.1f1/Editor/Data/Tools/ScriptUpdater/APIUpdater.NonObsoleteApiUpdaterDetector.exe
[api-updater (non-obsolete-error-filter)] 
----------------------------------
jit/startup time      : 51.8953ms
moved types parse time: 41ms
candidates parse time : 0ms
C# parse time         : 129ms
candidates check time : 15ms
console write time    : 0ms

[api-updater (non-obsolete-error-filter)] 4/8/2021 6:47:57 PM : Starting C:/Program Files/Unity/Hub/Editor/2020.3.1f1/Editor/Data/Tools/ScriptUpdater/APIUpdater.NonObsoleteApiUpdaterDetector.exe
[api-updater (non-obsolete-error-filter)] 
----------------------------------
jit/startup time      : 76.7944ms
moved types parse time: 59ms
candidates parse time : 1ms
C# parse time         : 134ms
candidates check time : 16ms
console write time    : 0ms

[api-updater (non-obsolete-error-filter)] 4/8/2021 8:38:02 PM : Starting C:/Program Files/Unity/Hub/Editor/2020.3.1f1/Editor/Data/Tools/ScriptUpdater/APIUpdater.NonObsoleteApiUpdaterDetector.exe
[api-updater (non-obsolete-error-filter)] 
----------------------------------
jit/startup time      : 62.831ms
moved types parse time: 54ms
candidates parse time : 1ms
C# parse time         : 239ms
candidates check time : 60ms
console write time    : 0ms

[api-updater (non-obsolete-error-filter)] 4/8/2021 9:34:55 PM : Starting C:/Program Files/Unity/Hub/Editor/2020.3.1f1/Editor/Data/Tools/ScriptUpdater/APIUpdater.NonObsoleteApiUpdaterDetector.exe
[api-updater (non-obsolete-error-filter)] 
----------------------------------
jit/startup time      : 66.8219ms
moved types parse time: 65ms
candidates parse time : 1ms
C# parse time         : 207ms
candidates check time : 22ms
console write time    : 0ms

[api-updater (non-obsolete-error-filter)] 4/9/2021 6:19:37 AM : Starting C:/Program Files/Unity/Hub/Editor/2020.3.1f1/Editor/Data/Tools/ScriptUpdater/APIUpdater.NonObsoleteApiUpdaterDetector.exe
[api-updater (non-obsolete-error-filter)] 
----------------------------------
jit/startup time      : 524.1725ms
moved types parse time: 44ms
candidates parse time : 1ms
C# parse time         : 223ms
candidates check time : 49ms
console write time    : 0ms

[api-updater (non-obsolete-error-filter)] 4/9/2021 7:37:15 AM : Starting C:/Program Files/Unity/Hub/Editor/2020.3.1f1/Editor/Data/Tools/ScriptUpdater/APIUpdater.NonObsoleteApiUpdaterDetector.exe
[api-updater (non-obsolete-error-filter)] 
----------------------------------
jit/startup time      : 57.8447ms
moved types parse time: 45ms
candidates parse time : 1ms
C# parse time         : 172ms
candidates check time : 40ms
console write time    : 0ms

[api-updater (non-obsolete-error-filter)] 4/9/2021 7:40:44 AM : Starting C:/Program Files/Unity/Hub/Editor/2020.3.1f1/Editor/Data/Tools/ScriptUpdater/APIUpdater.NonObsoleteApiUpdaterDetector.exe
[api-updater (non-obsolete-error-filter)] 
----------------------------------
jit/startup time      : 74.3141ms
moved types parse time: 53ms
candidates parse time : 1ms
C# parse time         : 195ms
candidates check time : 53ms
console write time    : 0ms

[api-updater (non-obsolete-error-filter)] 4/9/2021 7:41:02 AM : Starting C:/Program Files/Unity/Hub/Editor/2020.3.1f1/Editor/Data/Tools/ScriptUpdater/APIUpdater.NonObsoleteApiUpdaterDetector.exe
[api-updater (non-obsolete-error-filter)] 
----------------------------------
jit/startup time      : 68.8172ms
moved types parse time: 55ms
candidates parse time : 1ms
C# parse time         : 201ms
candidates check time : 48ms
console write time    : 0ms

[api-updater (non-obsolete-error-filter)] 4/9/2021 7:43:38 AM : Starting C:/Program Files/Unity/Hub/Editor/2020.3.1f1/Editor/Data/Tools/ScriptUpdater/APIUpdater.NonObsoleteApiUpdaterDetector.exe
[api-updater (non-obsolete-error-filter)] 
----------------------------------
jit/startup time      : 55.8507ms
moved types parse time: 69ms
candidates parse time : 1ms
C# parse time         : 219ms
candidates check time : 58ms
console write time    : 0ms

[api-updater (non-obsolete-error-filter)] 4/9/2021 7:44:46 AM : Starting C:/Program Files/Unity/Hub/Editor/2020.3.1f1/Editor/Data/Tools/ScriptUpdater/APIUpdater.NonObsoleteApiUpdaterDetector.exe
[api-updater (non-obsolete-error-filter)] 
----------------------------------
jit/startup time      : 63.8287ms
moved types parse time: 62ms
candidates parse time : 1ms
C# parse time         : 204ms
candidates check time : 57ms
console write time    : 0ms

[api-updater (non-obsolete-error-filter)] 4/9/2021 7:45:24 AM : Starting C:/Program Files/Unity/Hub/Editor/2020.3.1f1/Editor/Data/Tools/ScriptUpdater/APIUpdater.NonObsoleteApiUpdaterDetector.exe
[api-updater (non-obsolete-error-filter)] 
----------------------------------
jit/startup time      : 66.8211ms
moved types parse time: 53ms
candidates parse time : 1ms
C# parse time         : 219ms
candidates check time : 55ms
console write time    : 0ms

[api-updater (non-obsolete-error-filter)] 4/9/2021 7:45:37 AM : Starting C:/Program Files/Unity/Hub/Editor/2020.3.1f1/Editor/Data/Tools/ScriptUpdater/APIUpdater.NonObsoleteApiUpdaterDetector.exe
[api-updater (non-obsolete-error-filter)] 
----------------------------------
jit/startup time      : 65.8245ms
moved types parse time: 58ms
candidates parse time : 1ms
C# parse time         : 217ms
candidates check time : 48ms
console write time    : 0ms

[api-updater (non-obsolete-error-filter)] 4/9/2021 7:45:43 AM : Starting C:/Program Files/Unity/Hub/Editor/2020.3.1f1/Editor/Data/Tools/ScriptUpdater/APIUpdater.NonObsoleteApiUpdaterDetector.exe
[api-updater (non-obsolete-error-filter)] 
----------------------------------
jit/startup time      : 51.496ms
moved types parse time: 42ms
candidates parse time : 1ms
C# parse time         : 156ms
candidates check time : 41ms
console write time    : 0ms

[api-updater (non-obsolete-error-filter)] 4/9/2021 7:46:20 AM : Starting C:/Program Files/Unity/Hub/Editor/2020.3.1f1/Editor/Data/Tools/ScriptUpdater/APIUpdater.NonObsoleteApiUpdaterDetector.exe
[api-updater (non-obsolete-error-filter)] 
----------------------------------
jit/startup time      : 61.8343ms
moved types parse time: 70ms
candidates parse time : 1ms
C# parse time         : 251ms
candidates check time : 63ms
console write time    : 0ms

[api-updater (non-obsolete-error-filter)] 4/9/2021 9:38:10 AM : Starting C:/Program Files/Unity/Hub/Editor/2020.3.1f1/Editor/Data/Tools/ScriptUpdater/APIUpdater.NonObsoleteApiUpdaterDetector.exe
[api-updater (non-obsolete-error-filter)] 
----------------------------------
jit/startup time      : 52.8469ms
moved types parse time: 43ms
candidates parse time : 1ms
C# parse time         : 153ms
candidates check time : 34ms
console write time    : 0ms

[api-updater (non-obsolete-error-filter)] 4/9/2021 9:38:17 AM : Starting C:/Program Files/Unity/Hub/Editor/2020.3.1f1/Editor/Data/Tools/ScriptUpdater/APIUpdater.NonObsoleteApiUpdaterDetector.exe
[api-updater (non-obsolete-error-filter)] 
----------------------------------
jit/startup time      : 56.847ms
moved types parse time: 44ms
candidates parse time : 1ms
C# parse time         : 168ms
candidates check time : 36ms
console write time    : 0ms

[api-updater (non-obsolete-error-filter)] 4/9/2021 9:40:35 AM : Starting C:/Program Files/Unity/Hub/Editor/2020.3.1f1/Editor/Data/Tools/ScriptUpdater/APIUpdater.NonObsoleteApiUpdaterDetector.exe
[api-updater (non-obsolete-error-filter)] 
----------------------------------
jit/startup time      : 79.7868ms
moved types parse time: 78ms
candidates parse time : 1ms
C# parse time         : 250ms
candidates check time : 51ms
console write time    : 0ms

[api-updater (non-obsolete-error-filter)] 4/9/2021 9:40:50 AM : Starting C:/Program Files/Unity/Hub/Editor/2020.3.1f1/Editor/Data/Tools/ScriptUpdater/APIUpdater.NonObsoleteApiUpdaterDetector.exe
[api-updater (non-obsolete-error-filter)] 
----------------------------------
jit/startup time      : 63.8299ms
moved types parse time: 59ms
candidates parse time : 1ms
C# parse time         : 234ms
candidates check time : 50ms
console write time    : 0ms

[api-updater (non-obsolete-error-filter)] 4/9/2021 9:43:57 AM : Starting C:/Program Files/Unity/Hub/Editor/2020.3.1f1/Editor/Data/Tools/ScriptUpdater/APIUpdater.NonObsoleteApiUpdaterDetector.exe
[api-updater (non-obsolete-error-filter)] 
----------------------------------
jit/startup time      : 73.8027ms
moved types parse time: 69ms
candidates parse time : 1ms
C# parse time         : 212ms
candidates check time : 54ms
console write time    : 0ms

[api-updater (non-obsolete-error-filter)] 4/9/2021 11:38:51 AM : Starting C:/Program Files/Unity/Hub/Editor/2020.3.1f1/Editor/Data/Tools/ScriptUpdater/APIUpdater.NonObsoleteApiUpdaterDetector.exe
[api-updater (non-obsolete-error-filter)] 
----------------------------------
jit/startup time      : 51.8316ms
moved types parse time: 42ms
candidates parse time : 0ms
C# parse time         : 163ms
candidates check time : 69ms
console write time    : 0ms

[api-updater (non-obsolete-error-filter)] 4/9/2021 11:40:28 AM : Starting C:/Program Files/Unity/Hub/Editor/2020.3.1f1/Editor/Data/Tools/ScriptUpdater/APIUpdater.NonObsoleteApiUpdaterDetector.exe
[api-updater (non-obsolete-error-filter)] 
----------------------------------
jit/startup time      : 50.1556ms
moved types parse time: 41ms
candidates parse time : 1ms
C# parse time         : 161ms
candidates check time : 67ms
console write time    : 0ms

[api-updater (non-obsolete-error-filter)] 4/9/2021 11:41:55 AM : Starting C:/Program Files/Unity/Hub/Editor/2020.3.1f1/Editor/Data/Tools/ScriptUpdater/APIUpdater.NonObsoleteApiUpdaterDetector.exe
[api-updater (non-obsolete-error-filter)] 
----------------------------------
jit/startup time      : 67.6693ms
moved types parse time: 66ms
candidates parse time : 1ms
C# parse time         : 253ms
candidates check time : 80ms
console write time    : 0ms

[api-updater (non-obsolete-error-filter)] 4/9/2021 11:44:00 AM : Starting C:/Program Files/Unity/Hub/Editor/2020.3.1f1/Editor/Data/Tools/ScriptUpdater/APIUpdater.NonObsoleteApiUpdaterDetector.exe
[api-updater (non-obsolete-error-filter)] 
----------------------------------
jit/startup time      : 67.8182ms
moved types parse time: 54ms
candidates parse time : 1ms
C# parse time         : 207ms
candidates check time : 80ms
console write time    : 0ms

[api-updater (non-obsolete-error-filter)] 4/9/2021 2:43:24 PM : Starting C:/Program Files/Unity/Hub/Editor/2020.3.1f1/Editor/Data/Tools/ScriptUpdater/APIUpdater.NonObsoleteApiUpdaterDetector.exe
[api-updater (non-obsolete-error-filter)] 
----------------------------------
jit/startup time      : 173.5372ms
moved types parse time: 66ms
candidates parse time : 1ms
C# parse time         : 299ms
candidates check time : 56ms
console write time    : 0ms

